## Title: Auctioneer:Stat:Example2
## Interface: 80100
## Dependancies: Auc-Advanced
##
## Version: <%version%> (<%codename%>)
## Revision: $Id$
## URL: http://auctioneeraddon.com/
## Author: Norganna's AddOns
## X-Part-Of: Auctioneer
##
Embed.xml
